<?xml version="1.0" encoding="UTF-8" standalone="no"?>
<svg
   xmlns:dc="http://purl.org/dc/elements/1.1/"
   xmlns:cc="http://creativecommons.org/ns#"
   xmlns:rdf="http://www.w3.org/1999/02/22-rdf-syntax-ns#"
   xmlns:svg="http://www.w3.org/2000/svg"
   xmlns="http://www.w3.org/2000/svg"
   xmlns:sodipodi="http://sodipodi.sourceforge.net/DTD/sodipodi-0.dtd"
   xmlns:inkscape="http://www.inkscape.org/namespaces/inkscape"
   width="33mm"
   height="33mm"
   viewBox="0 0 33 33"
   version="1.1"
   id="svg8"
   inkscape:version="1.0.1 (3bc2e813f5, 2020-09-07)"
   sodipodi:docname="mediaserverconnect.svg">
  <defs
     id="defs2" />
  <sodipodi:namedview
     id="base"
     pagecolor="#ffffff"
     bordercolor="#666666"
     borderopacity="1.0"
     inkscape:pageopacity="0.0"
     inkscape:pageshadow="2"
     inkscape:zoom="3.959798"
     inkscape:cx="84.313014"
     inkscape:cy="49.934136"
     inkscape:document-units="mm"
     inkscape:current-layer="layer1"
     inkscape:document-rotation="0"
     showgrid="false"
     inkscape:window-width="1920"
     inkscape:window-height="1144"
     inkscape:window-x="0"
     inkscape:window-y="0"
     inkscape:window-maximized="1" />
  <metadata
     id="metadata5">
    <rdf:RDF>
      <cc:Work
         rdf:about="">
        <dc:format>image/svg+xml</dc:format>
        <dc:type
           rdf:resource="http://purl.org/dc/dcmitype/StillImage" />
        <dc:title></dc:title>
      </cc:Work>
    </rdf:RDF>
  </metadata>
  <g
     inkscape:label="Layer 1"
     inkscape:groupmode="layer"
     id="layer1">
    <g
       id="g993"
       transform="translate(-88.059046,-55.230048)">
      <path
         id="path10"
         style="fill:#666666;fill-opacity:1;fill-rule:evenodd;stroke:#000000;stroke-width:1.44013;stroke-miterlimit:4;stroke-dasharray:none;stroke-opacity:1"
         d="M 119.79502,71.693474 A 15.279952,15.279923 0 0 1 104.51507,86.973397 15.279952,15.279923 0 0 1 89.235116,71.693474 15.279952,15.279923 0 0 1 104.51507,56.41355 15.279952,15.279923 0 0 1 119.79502,71.693474 Z" />
      <path
         id="rect847"
         style="fill:#000000;fill-opacity:1;stroke:#000000;stroke-width:1.59484;stroke-linecap:round;stroke-linejoin:round;stroke-miterlimit:4;stroke-dasharray:none;stroke-opacity:1"
         d="M 93.166321,64.818275 H 115.72838 V 78.379477 H 93.166321 Z" />
      <path
         id="rect865"
         style="fill:#ffffff;fill-opacity:1;stroke:#fffffe;stroke-width:0.885089;stroke-linejoin:round;stroke-miterlimit:4;stroke-dasharray:none;stroke-opacity:1"
         d="m 94.638268,75.111038 h 20.233022 v 1.208827 H 94.638268 Z" />
      <path
         id="path867"
         style="fill:#00aa00;fill-opacity:1;stroke:none;stroke-width:0.310071;stroke-miterlimit:4;stroke-dasharray:none;stroke-opacity:1"
         d="m 98.209446,75.610062 a 2.3346677,2.2464867 0 0 1 -2.334667,2.246486 2.3346677,2.2464867 0 0 1 -2.334668,-2.246486 2.3346677,2.2464867 0 0 1 2.334668,-2.246487 2.3346677,2.2464867 0 0 1 2.334667,2.246487 z" />
      <g
         aria-label="MSC"
         id="text945"
         style="font-style:normal;font-weight:normal;font-size:10.107px;line-height:1.25;font-family:sans-serif;fill:#000000;fill-opacity:1;stroke:none;stroke-width:0.252676">
        <path
           d="m 93.623381,65.906502 h 2.256976 l 1.566065,3.680253 1.575278,-3.680253 h 2.25237 v 6.876869 h -1.676611 v -5.029833 l -1.58449,3.70789 h -1.123882 l -1.584489,-3.70789 v 5.029833 h -1.681217 z"
           style="font-style:normal;font-variant:normal;font-weight:bold;font-stretch:normal;font-size:9.43324px;font-family:sans-serif;-inkscape-font-specification:'sans-serif Bold';fill:#ffffff;stroke-width:0.252676"
           id="path1017" />
        <path
           d="m 107.79627,66.122988 v 1.455519 q -0.56655,-0.253334 -1.10546,-0.382304 -0.53891,-0.12897 -1.01794,-0.12897 -0.63564,0 -0.93964,0.175031 -0.304,0.175031 -0.304,0.543516 0,0.276365 0.20267,0.432971 0.20727,0.152001 0.74618,0.262547 l 0.7554,0.152 q 1.14691,0.230304 1.63055,0.700123 0.48364,0.46982 0.48364,1.335762 0,1.1377 -0.6771,1.695035 -0.67248,0.552729 -2.05891,0.552729 -0.65406,0 -1.31273,-0.124364 -0.65867,-0.124364 -1.31734,-0.368486 v -1.496974 q 0.65867,0.350062 1.27128,0.529699 0.61721,0.17503 1.18836,0.17503 0.58037,0 0.88898,-0.193455 0.3086,-0.193455 0.3086,-0.552729 0,-0.322425 -0.21188,-0.497456 -0.20727,-0.17503 -0.8337,-0.313213 l -0.6863,-0.152 q -1.03176,-0.221092 -1.51079,-0.704729 -0.47443,-0.483638 -0.47443,-1.303519 0,-1.027155 0.66328,-1.579884 0.66327,-0.552729 1.90691,-0.552729 0.56655,0 1.16534,0.08752 0.59879,0.08291 1.23903,0.253334 z"
           style="font-style:normal;font-variant:normal;font-weight:bold;font-stretch:normal;font-size:9.43324px;font-family:sans-serif;-inkscape-font-specification:'sans-serif Bold';fill:#ffffff;stroke-width:0.252676"
           id="path1019" />
        <path
           d="m 115.25811,72.405673 q -0.48824,0.253334 -1.01794,0.382304 -0.5297,0.12897 -1.10546,0.12897 -1.71806,0 -2.72219,-0.958063 -1.00412,-0.96267 -1.00412,-2.607038 0,-1.648975 1.00412,-2.607038 1.00413,-0.96267 2.72219,-0.96267 0.57576,0 1.10546,0.12897 0.5297,0.12897 1.01794,0.382304 v 1.423277 q -0.49285,-0.336243 -0.97188,-0.49285 -0.47903,-0.156606 -1.00873,-0.156606 -0.94885,0 -1.49237,0.608002 -0.54352,0.608001 -0.54352,1.676611 0,1.064003 0.54352,1.672005 0.54352,0.608001 1.49237,0.608001 0.5297,0 1.00873,-0.156606 0.47903,-0.156607 0.97188,-0.49285 z"
           style="font-style:normal;font-variant:normal;font-weight:bold;font-stretch:normal;font-size:9.43324px;font-family:sans-serif;-inkscape-font-specification:'sans-serif Bold';fill:#ffffff;stroke-width:0.252676"
           id="path1021" />
      </g>
    </g>
  </g>
</svg>
